{
    "_via_settings": {
       "ui": {
          "annotation_editor_height": 25,
          "annotation_editor_fontsize": 0.8,
          "leftsidebar_width": 18,
          "image_grid": {
             "img_height": 80,
             "rshape_fill": "none",
             "rshape_fill_opacity": 0.3,
             "rshape_stroke": "yellow",
             "rshape_stroke_width": 2,
             "show_region_shape": true,
             "show_image_policy": "all"
          },
          "image": {
             "region_label": "__via_region_id__",
             "region_color": "__via_default_region_color__",
             "region_label_font": "10px Sans",
             "on_image_annotation_editor_placement": "NEAR_REGION"
          }
       },
       "core": {
          "buffer_size": 18,
          "filepath": {},
          "default_filepath": ""
       },
       "project": {
          "name": "via_project_12Jun2019_15h22m"
       }
    },
    "_via_img_metadata": {
       "2-800x800.jpg30258": {
          "filename": "2-800x800.jpg",
          "size": 30258,
          "regions": [
             {
                "shape_attributes": {
                   "name": "rect",
                   "x": 126,
                   "y": 66,
                   "width": 598,
                   "height": 522
                },
                "region_attributes": {
                   "name": "fist_hand",
                   "type": "unknown",
                   "image_quality": {
                      "good": true,
                      "frontal": true,
                      "good_illumination": true
                   }
                }
             }
          ],
          "file_attributes": {
             "caption": "",
             "public_domain": "no",
             "image_url": ""
          }
       },
       "3034681112.jpeg176191": {
          "filename": "3034681112.jpeg",
          "size": 176191,
          "regions": [
             {
                "shape_attributes": {
                   "name": "rect",
                   "x": 588,
                   "y": 89,
                   "width": 854,
                   "height": 783
                },
                "region_attributes": {
                   "name": "fist_hand",
                   "type": "unknown",
                   "image_quality": {
                      "good": true,
                      "frontal": true,
                      "good_illumination": true
                   }
                }
             }
          ],
          "file_attributes": {
             "caption": "",
             "public_domain": "no",
             "image_url": ""
          }
       },
       "depositphotos_23883979-stock-photo-a-womans-hand-with-a.jpg9950": {
          "filename": "depositphotos_23883979-stock-photo-a-womans-hand-with-a.jpg",
          "size": 9950,
          "regions": [
             {
                "shape_attributes": {
                   "name": "rect",
                   "x": 41,
                   "y": 32,
                   "width": 239,
                   "height": 200
                },
                "region_attributes": {
                   "name": "fist_hand",
                   "type": "unknown",
                   "image_quality": {
                      "good": true,
                      "frontal": true,
                      "good_illumination": true
                   }
                }
             }
          ],
          "file_attributes": {
             "caption": "",
             "public_domain": "no",
             "image_url": ""
          }
       },
       "empty-woman-hands-isolated-white-background_1301-3957.jpg41345": {
          "filename": "empty-woman-hands-isolated-white-background_1301-3957.jpg",
          "size": 41345,
          "regions": [
             {
                "shape_attributes": {
                   "name": "rect",
                   "x": 101,
                   "y": 78,
                   "width": 434,
                   "height": 421
                },
                "region_attributes": {
                   "name": "fist_hand",
                   "type": "unknown",
                   "image_quality": {
                      "good": true,
                      "frontal": true,
                      "good_illumination": true
                   }
                }
             }
          ],
          "file_attributes": {
             "caption": "",
             "public_domain": "no",
             "image_url": ""
          }
       },
       "fist-424500_640_1.jpg24590": {
          "filename": "fist-424500_640_1.jpg",
          "size": 24590,
          "regions": [
             {
                "shape_attributes": {
                   "name": "rect",
                   "x": 16,
                   "y": 36,
                   "width": 121,
                   "height": 143
                },
                "region_attributes": {
                   "name": "fist_hand",
                   "type": "unknown",
                   "image_quality": {
                      "good": true,
                      "frontal": true,
                      "good_illumination": true
                   }
                }
             }
          ],
          "file_attributes": {
             "caption": "",
             "public_domain": "no",
             "image_url": ""
          }
       },
       "gettyimages-506931975-170667a.jpg57984": {
          "filename": "gettyimages-506931975-170667a.jpg",
          "size": 57984,
          "regions": [
             {
                "shape_attributes": {
                   "name": "rect",
                   "x": 342,
                   "y": 22,
                   "width": 148,
                   "height": 127
                },
                "region_attributes": {
                   "name": "fist_hand",
                   "type": "unknown",
                   "image_quality": {
                      "good": true,
                      "frontal": true,
                      "good_illumination": true
                   }
                }
             }
          ],
          "file_attributes": {
             "caption": "",
             "public_domain": "no",
             "image_url": ""
          }
       },
       "hand-with-fist.jpg28081": {
          "filename": "hand-with-fist.jpg",
          "size": 28081,
          "regions": [
             {
                "shape_attributes": {
                   "name": "rect",
                   "x": 178,
                   "y": 51,
                   "width": 304,
                   "height": 193
                },
                "region_attributes": {
                   "name": "fist_hand",
                   "type": "unknown",
                   "image_quality": {
                      "good": true,
                      "frontal": true,
                      "good_illumination": true
                   }
                }
             }
          ],
          "file_attributes": {
             "caption": "",
             "public_domain": "no",
             "image_url": ""
          }
       },
       "images (1).jpg2281": {
          "filename": "images (1).jpg",
          "size": 2281,
          "regions": [
             {
                "shape_attributes": {
                   "name": "rect",
                   "x": 66,
                   "y": 25,
                   "width": 160,
                   "height": 112
                },
                "region_attributes": {
                   "name": "fist_hand",
                   "type": "unknown",
                   "image_quality": {
                      "good": true,
                      "frontal": true,
                      "good_illumination": true
                   }
                }
             }
          ],
          "file_attributes": {
             "caption": "",
             "public_domain": "no",
             "image_url": ""
          }
       },
       "images.jpg3076": {
          "filename": "images.jpg",
          "size": 3076,
          "regions": [
             {
                "shape_attributes": {
                   "name": "rect",
                   "x": 29,
                   "y": 9,
                   "width": 161,
                   "height": 153
                },
                "region_attributes": {
                   "name": "fist_hand",
                   "type": "unknown",
                   "image_quality": {
                      "good": true,
                      "frontal": true,
                      "good_illumination": true
                   }
                }
             }
          ],
          "file_attributes": {
             "caption": "",
             "public_domain": "no",
             "image_url": ""
          }
       }
    },
    "_via_attributes": {
       "region": {
          "name": {
             "type": "text",
             "description": "Name of the object",
             "default_value": "not_defined"
          },
          "type": {
             "type": "dropdown",
             "description": "Category of object",
             "options": {
                "bird": "Bird",
                "human": "Human",
                "cup": "Cup (object)",
                "unknown": "Unknown (object)"
             },
             "default_options": {
                "unknown": true
             }
          },
          "image_quality": {
             "type": "checkbox",
             "description": "Quality of image region",
             "options": {
                "blur": "Blurred region",
                "good_illumination": "Good Illumination",
                "frontal": "Object in Frontal View"
             },
             "default_options": {
                "good": true,
                "frontal": true,
                "good_illumination": true
             }
          }
       },
       "file": {
          "caption": {
             "type": "text",
             "description": "",
             "default_value": ""
          },
          "public_domain": {
             "type": "radio",
             "description": "",
             "options": {
                "yes": "Yes",
                "no": "No"
             },
             "default_options": {
                "no": true
             }
          },
          "image_url": {
             "type": "text",
             "description": "",
             "default_value": ""
          }
       }
    }
 }